<svg id="Capa_1" data-name="Capa 1" xmlns="http://www.w3.org/2000/svg" width="35.7" height="49" viewBox="0 0 35.7 49">
  <title>delete</title>
  <g>
    <path d="M10.1,48.4a1.1,1.1,0,0,0,1.1,1.1H38.8a1.1,1.1,0,0,0,1.1-1.1V13.2H10.1V48.4Zm21-29.2h4.1V42.9H31.1Zm-8.1,0h4V42.9H23Zm-8.2,0h4.1V42.9H14.8Z" transform="translate(-7.1 -0.5)" fill="#2287de"/>
    <path d="M34.2,5.5V1.6A1.1,1.1,0,0,0,33.1.5H16.9a1.1,1.1,0,0,0-1.1,1.1V6.9H8.2a1,1,0,0,0-1.1,1v2.8a1.1,1.1,0,0,0,1.1,1.1H41.8a1.1,1.1,0,0,0,1.1-1.1V7.9a1,1,0,0,0-1.1-1H34.2V5.5ZM30.1,6.6H19.9v-2H30.1v2Z" transform="translate(-7.1 -0.5)" fill="#2287de"/>
  </g>
</svg>
