<?xml version="1.0" encoding="utf-8"?>
<!-- Generator: Adobe Illustrator 22.1.0, SVG Export Plug-In . SVG Version: 6.00 Build 0)  -->
<svg version="1.1" id="Layer_1" xmlns="http://www.w3.org/2000/svg" xmlns:xlink="http://www.w3.org/1999/xlink" x="0px" y="0px"
	 viewBox="0 0 30 30" style="enable-background:new 0 0 30 30;" xml:space="preserve">
<style type="text/css">
	.st0{opacity:0.6;fill:#2287DE;}
</style>
<title>email_blue</title>
<path class="st0" d="M29.6,24.1V5.8h0c0-0.5-0.3-1-0.8-1.2H1.5c-0.6,0-1.1,0.5-1.1,1.1c0,0,0,0.1,0,0.1v17.8h0v0.5
	c-0.1,0.5,0.3,1.1,0.8,1.2h27.3c0.6,0,1.1-0.5,1.1-1.1C29.6,24.2,29.6,24.2,29.6,24.1z M25.4,7.1l-10.5,9.2L4.3,7.1H25.4z M27.3,23
	H2.7V8.7l11.4,9.9c0.2,0.2,0.5,0.3,0.8,0.3c0.3,0,0.5-0.1,0.7-0.3L27.3,8.4V23z"/>
</svg>
