<svg id="Layer_1" data-name="Layer 1" xmlns="http://www.w3.org/2000/svg" width="29.4" height="29.5" viewBox="0 0 29.4 29.5">
  <title>gastroenterology_active</title>
  <path d="M3.5,21.9a4.3,4.3,0,0,1,1.7-.4h.3A4.9,4.9,0,0,0,8,20.3a2.4,2.4,0,0,1,.8-.6,8.3,8.3,0,0,1,1.6-.9,10.6,10.6,0,0,0,2.1-1.1,12.4,12.4,0,0,0,3-3.3,13.1,13.1,0,0,0,1.7-3.6l.3-1c0-.1.1-.2.1-.3s1.1-1.8.4-2.4h-.1c-2.2-1.6-2.6-5.4-2.7-5.4a.6.6,0,0,0-.6-.6.7.7,0,0,0-.6.7c.1.2.6,4.2,3,6.1a3,3,0,0,1-.4,1c-.1.2-.2.3-.2.4h0a4.9,4.9,0,0,0-.4,1.1,12.4,12.4,0,0,1-1.5,3.3,11.6,11.6,0,0,1-2.7,3l-1.9,1a15.1,15.1,0,0,0-1.8.9l-.9.7a3.6,3.6,0,0,1-1.8,1H5.1a4.9,4.9,0,0,0-2.2.6C.2,22.5.3,26.2.3,27.9a.6.6,0,0,0,.6.6h0a.5.5,0,0,0,.6-.6h0C1.5,25.4,1.7,23,3.5,21.9ZM28.3,9.1A7.4,7.4,0,0,0,22.5,5H21.3c-.4-.3-2.4-2.5-2.5-4.1a.5.5,0,0,0-.6-.5.6.6,0,0,0-.6.6,9,9,0,0,0,3.1,5,2.2,2.2,0,0,0,1.3.3h.4a6.4,6.4,0,0,1,4.8,3.5,12.1,12.1,0,0,1,1.3,6.2c-.3,5.8-3.1,10-8.1,11.9-1.4.5-6.3,1.6-10.3-.5h0A5.2,5.2,0,0,1,8,25.4H8c-.6-.8-1.3-1.9-2.9-1.2s-1.7,3.1-1.7,4.1a.7.7,0,0,0,.7.6.6.6,0,0,0,.6-.6c0-.7,0-2.7.9-3h0c.6-.2.8-.1,1.4.8h.1a6.7,6.7,0,0,0,2.5,2.3,12.5,12.5,0,0,0,5.9,1.4h1a13.4,13.4,0,0,0,4.3-.8,13,13,0,0,0,6.5-5,15.7,15.7,0,0,0,2.4-8A13.4,13.4,0,0,0,28.3,9.1Zm-18.1,11a3.1,3.1,0,0,0-2.1,2.3,3.2,3.2,0,0,0,.8,3,5.1,5.1,0,0,0,2.4,1.4,10.4,10.4,0,0,0,3.9.7,14.3,14.3,0,0,0,2.9-.3A12.7,12.7,0,0,0,24,23.8a10.1,10.1,0,0,0,2.7-4,6.9,6.9,0,0,0-.2-4.9c-.1-.2-.5-.9-1.1-1h-.1a1.6,1.6,0,0,0-1.4,1,10.1,10.1,0,0,1-4.7,3.6,23.4,23.4,0,0,1-7,1.2A5.1,5.1,0,0,0,10.2,20.1Zm9.4-.5a10.8,10.8,0,0,0,5.3-4h0l.3-.3c.1,0,.1.1.1.2h.1a5.5,5.5,0,0,1,.1,4h0A9.5,9.5,0,0,1,23.2,23a12.7,12.7,0,0,1-5.4,3,10.5,10.5,0,0,1-6.1-.3,4.8,4.8,0,0,1-1.9-1.1,2,2,0,0,1-.5-1.9,2,2,0,0,1,1.3-1.5h0l1.7-.3A20.8,20.8,0,0,0,19.6,19.6Z" transform="translate(-0.3 -0.3)" fill="#fff"/>
</svg>
