<?xml version="1.0" encoding="utf-8"?>
<!-- Generator: Adobe Illustrator 22.1.0, SVG Export Plug-In . SVG Version: 6.00 Build 0)  -->
<svg version="1.1" id="Layer_1" xmlns="http://www.w3.org/2000/svg" xmlns:xlink="http://www.w3.org/1999/xlink" x="0px" y="0px"
	 viewBox="0 0 30 30" style="enable-background:new 0 0 30 30;" xml:space="preserve">
<style type="text/css">
	.st0{opacity:0.6;}
	.st1{fill:#FFFFFF;}
</style>
<title>healthcard_white</title>
<g class="st0">
	<path class="st1" d="M27,3.6H3C1.5,3.6,0.3,4.8,0.3,6.4v17.3c0.1,1.5,1.3,2.7,2.8,2.8H27c1.5-0.1,2.7-1.3,2.8-2.8V6.4
		C29.7,4.8,28.5,3.6,27,3.6z M2.5,6.4c0-0.3,0.2-0.5,0.5-0.5H27c0.3,0,0.5,0.2,0.5,0.5v17.3c0,0.3-0.2,0.5-0.5,0.5H3
		c-0.3,0-0.5-0.2-0.5-0.5V6.4z"/>
	<path class="st1" d="M5.4,22.3h10c0.3,0,0.6-0.1,0.8-0.3c0.3-0.2,0.4-0.5,0.4-0.8V20c0-0.9-0.6-1.8-1.4-2.2l-1.5-1
		c0.5-0.6,0.7-1.4,0.8-2.2v-2.3c-0.1-2.1-1.8-3.8-3.9-3.8h-0.5c-2.1,0-3.8,1.7-3.8,3.8c0,0,0,0.1,0,0.1v2.2c0,0.8,0.4,1.6,0.9,2.2
		l-1.4,0.9C4.9,18,4.3,19,4.3,19.9v1.2C4.3,21.8,4.8,22.3,5.4,22.3C5.4,22.3,5.4,22.3,5.4,22.3z M12.4,12.3v2.2c0,0.6-0.4,1.2-1,1.5
		c-0.3,0.2-0.6,0.5-0.6,0.9c0,0.4,0.2,0.9,0.6,1.1l2.8,1.7h0.1c0.1,0,0.2,0.1,0.2,0.2l0,0H6.7l0.2-0.3l2.9-1.7
		c0.4-0.2,0.6-0.7,0.6-1.1c-0.1-0.4-0.3-0.7-0.7-0.9c-0.5-0.3-0.9-0.9-0.9-1.5v-2.1c0-0.8,0.7-1.5,1.5-1.5h0.6
		C11.7,10.8,12.3,11.4,12.4,12.3z"/>
	<path class="st1" d="M19.4,12.8h5.2c0.7,0,1.2-0.5,1.2-1.2c0,0,0,0,0,0c0-0.6-0.5-1.1-1.1-1.1c0,0-0.1,0-0.1,0h-5.2
		c-0.6-0.1-1.1,0.4-1.2,1c0,0,0,0.1,0,0.1C18.1,12.2,18.7,12.8,19.4,12.8L19.4,12.8z"/>
	<path class="st1" d="M19.4,16.5h5.2c0.7,0,1.2-0.5,1.2-1.2c0,0,0,0,0,0c0-0.6-0.5-1.1-1.1-1.1c0,0-0.1,0-0.1,0h-5.2
		c-0.6-0.1-1.1,0.4-1.2,1c0,0,0,0.1,0,0.1C18.1,16,18.7,16.5,19.4,16.5z"/>
	<path class="st1" d="M19.4,20.3h5.2c0.6,0,1.1-0.5,1.1-1.1S25.2,18,24.5,18h-5.2c-0.6,0-1.1,0.5-1.1,1.1S18.7,20.3,19.4,20.3z"/>
</g>
</svg>
