<?xml version="1.0" encoding="utf-8"?>
<!-- Generator: Adobe Illustrator 22.1.0, SVG Export Plug-In . SVG Version: 6.00 Build 0)  -->
<svg version="1.1" id="Layer_1" xmlns="http://www.w3.org/2000/svg" xmlns:xlink="http://www.w3.org/1999/xlink" x="0px" y="0px"
	 viewBox="0 0 30 30" style="enable-background:new 0 0 30 30;" xml:space="preserve">
<style type="text/css">
	.st0{opacity:0.6;}
	.st1{fill:#2287DE;}
</style>
<title>hospital_blue</title>
<g class="st0">
	<polygon class="st1" points="13.9,9.8 16,9.8 16,8.8 17.1,8.8 17.1,6.6 16,6.6 16,5.5 13.9,5.5 13.9,6.6 12.9,6.6 12.9,8.8 
		13.9,8.8 	"/>
	<rect x="13.8" y="13" class="st1" width="2.4" height="2.4"/>
	<path class="st1" d="M28,25.9V13.3h-6.5V1.6H8.4v11.6H2v12.6H0.3v2.5h29.5v-2.5H28z M25.5,15.8v10.1h-4V15.8H25.5z M19,4.1v21.7
		h-2.3v-7.4h-3.5v7.4h-2.3V4.1H19z M4.6,15.8h3.9v10.1H4.6V15.8z"/>
</g>
</svg>
