<svg id="Layer_1" data-name="Layer 1" xmlns="http://www.w3.org/2000/svg" width="20.1" height="29.5" viewBox="0 0 20.1 29.5">
  <title>medicalreport</title>
  <path d="M24,4.2H21v2h.2a.8.8,0,0,1,.7.7v9.2h-2l-1.7-4.6a.5.5,0,0,0-.9-.1l-3,6.2-1.9-3.4a.6.6,0,0,0-.9,0l-1.1,1.9H8.2V6.9a.6.6,0,0,1,.6-.7H9v-2H6A1,1,0,0,0,5,5.3V28.7a1,1,0,0,0,1,1.1H24a1,1,0,0,0,1-1.1V5.3A1,1,0,0,0,24,4.2ZM21.9,24.7a.8.8,0,0,1-.7.7H8.8a.8.8,0,0,1-.7-.7V17.8h3a.5.5,0,0,0,.5-.3l.4-.7,2,3.6a.5.5,0,0,0,.9-.1l2.7-5.7,1,2.8a.7.7,0,0,0,.5.4h2.8ZM11.3,7h7.4a1,1,0,0,0,1.1-1V3.9a.4.4,0,0,0-.1-.3,1.1,1.1,0,0,0-1-.8H17.4V2.2a.8.8,0,0,0-.2-.5A2.3,2.3,0,0,0,15,.3a2.4,2.4,0,0,0-2.2,1.3,1.4,1.4,0,0,0-.2.6v.5H11.3a1.1,1.1,0,0,0-1,.8c0,.1-.1.2-.1.3V6A1,1,0,0,0,11.3,7Zm2.8-4.8a1.1,1.1,0,0,1,1.8,0,.9.9,0,0,1,.1.5h0a.9.9,0,0,1-.5.8h-1a.9.9,0,0,1-.5-.8h0A.9.9,0,0,1,14.1,2.2Z" transform="translate(-5 -0.3)" fill="#7f7f7f"/>
</svg>
