<svg id="OBJECTS" xmlns="http://www.w3.org/2000/svg" xmlns:xlink="http://www.w3.org/1999/xlink" width="564" height="564" viewBox="0 0 564 564">
  <defs>
    <linearGradient id="linear-gradient" x1="231.13" y1="434.43" x2="366.02" y2="150.39" gradientUnits="userSpaceOnUse">
      <stop offset="0" stop-color="#00cfd1"/>
      <stop offset="1" stop-color="#2287de"/>
    </linearGradient>
    <linearGradient id="linear-gradient-2" x1="209.27" y1="424.05" x2="344.16" y2="140.01" xlink:href="#linear-gradient"/>
    <linearGradient id="linear-gradient-3" x1="183.23" y1="411.69" x2="318.13" y2="127.64" xlink:href="#linear-gradient"/>
    <linearGradient id="linear-gradient-4" x1="226.14" y1="432.07" x2="361.03" y2="148.02" xlink:href="#linear-gradient"/>
    <linearGradient id="linear-gradient-5" x1="216.41" y1="427.44" x2="351.3" y2="143.4" xlink:href="#linear-gradient"/>
    <linearGradient id="linear-gradient-6" x1="278.45" y1="456.91" x2="413.34" y2="172.86" xlink:href="#linear-gradient"/>
  </defs>
  <title>patient_img</title>
  <path d="M282,0C437.7,0,564,126.3,564,282S437.7,564,282,564,0,437.7,0,282,126.3,0,282,0Z" fill="#2287de" opacity="0.05" style="isolation: isolate"/>
  <path d="M282,45.9c130.3,0,236.1,105.8,236.1,236.1S412.3,518.1,282,518.1,45.9,412.3,45.9,282,151.7,45.9,282,45.9Z" fill="#2287de" opacity="0.05" style="isolation: isolate"/>
  <path d="M282,84.9A197.1,197.1,0,1,1,84.9,282,197,197,0,0,1,282,84.9Z" fill="#2287de" opacity="0.1" style="isolation: isolate"/>
  <g>
    <path d="M323.9,309.3h-3.7A65.8,65.8,0,0,0,338,283.5,20.3,20.3,0,0,0,350,247a16.1,16.1,0,0,0,5.1-11.9V232a16.4,16.4,0,0,0-8.9-14.6c-4-25.9-19.9-47.2-41.1-56.6a31.8,31.8,0,0,0,3.9-15.5,8.3,8.3,0,0,0-8.3-8.3H261.5a8.3,8.3,0,0,0-8.3,8.3,32.9,32.9,0,0,0,3.8,15.5c-21.2,9.4-37.1,30.7-41.1,56.6A16.4,16.4,0,0,0,207,232v3.1a16.5,16.5,0,0,0,5.1,11.9,20.3,20.3,0,0,0,12.1,36.5,66,66,0,0,0,17.9,26,36.2,36.2,0,0,0-32.6,35.9V418a9.1,9.1,0,0,0,9.1,9H350.9a9.1,9.1,0,0,0,9.1-9V345.4A36.1,36.1,0,0,0,323.9,309.3Zm23.3-46.1a9.3,9.3,0,0,1-5.9,8.6,68.9,68.9,0,0,0,1.1-12.1v-4.6A9.4,9.4,0,0,1,347.2,263.2ZM297.9,148a20.9,20.9,0,0,1-3.4,9.3,60.6,60.6,0,0,0-26.8,0,20.9,20.9,0,0,1-3.4-9.3ZM215,263.2a9.2,9.2,0,0,1,4.8-8.1v4.6a68.9,68.9,0,0,0,1.1,12.1A9.1,9.1,0,0,1,215,263.2Zm8.5-22.6a5.5,5.5,0,0,1-5.5-5.5V232a5.5,5.5,0,0,1,5.5-5.5h67.7a5.5,5.5,0,1,0,0-10.9H227.4c5.8-28,27.6-48.9,53.7-48.9s47.9,20.9,53.6,48.9H320.4a5.5,5.5,0,1,0,0,10.9h18.3a5.5,5.5,0,0,1,5.5,5.5v3.1a5.5,5.5,0,0,1-5.5,5.5Zm7.2,19.1v-8.1H331.4v8.1a56.5,56.5,0,0,1-14.9,37.9c-9.6,10.5-22.2,16.2-35.4,16.2s-25.8-5.7-35.5-16.2A57,57,0,0,1,230.7,259.7ZM290.3,324l-9.2,18.2L271.8,324a53.9,53.9,0,0,0,18.5,0ZM349,416H220.5V345.4a25.2,25.2,0,0,1,25.1-25.1h12l15.3,30c1.8,3.6,4.8,5.7,8.2,5.7s6.3-2.1,8.2-5.7l15.2-30h19.4A25.1,25.1,0,0,1,349,345.4Z" fill="url(#linear-gradient)"/>
    <path d="M281,285.4h3.4a5.5,5.5,0,1,0,0-10.9h-1.2v-8.6a5.5,5.5,0,0,0-11,0v10.4A9,9,0,0,0,281,285.4Z" fill="url(#linear-gradient-2)"/>
    <path d="M252.5,275.2a5.4,5.4,0,0,0,5.5-5.4v-8a5.5,5.5,0,0,0-5.5-5.5,5.5,5.5,0,0,0-5.5,5.5v8A5.5,5.5,0,0,0,252.5,275.2Z" fill="url(#linear-gradient-3)"/>
    <path d="M305.1,275.2a5.5,5.5,0,0,0,5.5-5.4v-8a5.5,5.5,0,0,0-11,0v8A5.5,5.5,0,0,0,305.1,275.2Z" fill="url(#linear-gradient-4)"/>
    <path d="M259.3,298.6a28.5,28.5,0,0,0,40.2,0,5.4,5.4,0,0,0-7.7-7.7,17.5,17.5,0,0,1-24.7,0,5.4,5.4,0,0,0-7.8,0A5.5,5.5,0,0,0,259.3,298.6Z" fill="url(#linear-gradient-5)"/>
    <path d="M329.7,363.3v-7.2a7.6,7.6,0,0,0-7.5-7.6H311.4a7.6,7.6,0,0,0-7.6,7.6v7.2h-7.2a7.6,7.6,0,0,0-7.6,7.5v10.8a7.5,7.5,0,0,0,7.6,7.5h7.2v7.3a7.6,7.6,0,0,0,7.6,7.5h10.8a7.6,7.6,0,0,0,7.5-7.5v-7.3h7.2a7.5,7.5,0,0,0,7.6-7.5V370.8a7.6,7.6,0,0,0-7.6-7.5Zm3.8,14.9h-9.3a5.5,5.5,0,0,0-5.5,5.5V393h-3.9v-9.3a5.5,5.5,0,0,0-5.5-5.5H300v-4h9.3a5.5,5.5,0,0,0,5.5-5.4v-9.3h3.9v9.3a5.5,5.5,0,0,0,5.5,5.4h9.3Z" fill="url(#linear-gradient-6)"/>
  </g>
</svg>
