<svg id="Layer_1" data-name="Layer 1" xmlns="http://www.w3.org/2000/svg" width="94.7" height="20.9" viewBox="0 0 94.7 20.9">
  <title>phr_logo</title>
  <g>
    <path d="M3,4.7H5.4V8.1H8.1V4.7h2.4v8.8H8.1V9.8H5.4v3.7H3V4.7Zm15.5,5.7v.5H13.9a1.4,1.4,0,0,0,.6,1,2.2,2.2,0,0,0,1.3.4l1-.2,1.2-.4v1.6l-1.2.3H15.6a4.1,4.1,0,0,1-2.8-.9,3.4,3.4,0,0,1-1-2.6,3.3,3.3,0,0,1,.9-2.5,3.5,3.5,0,0,1,2.5-.9,3,3,0,0,1,2.5,1,3.8,3.8,0,0,1,.8,2.6Zm-2-.8a1.2,1.2,0,0,0-.4-1,1,1,0,0,0-.9-.4,1.2,1.2,0,0,0-.9.4,2.3,2.3,0,0,0-.4,1Zm6.8,1a2.8,2.8,0,0,0-1.4.2c-.3.1-.4.3-.4.7a.8.8,0,0,0,.2.5.7.7,0,0,0,.6.2,1.2,1.2,0,0,0,1-.4,1.4,1.4,0,0,0,.4-1.1h-.4Zm2.5-.5v3.4H23.9v-1a1.4,1.4,0,0,1-.9.8,2.9,2.9,0,0,1-1.4.3,2.3,2.3,0,0,1-1.6-.6,2.1,2.1,0,0,1-.5-1.5,1.7,1.7,0,0,1,.8-1.6,6,6,0,0,1,2.6-.5h.9a.9.9,0,0,0-.4-.8,2.1,2.1,0,0,0-1.2-.3h-.9l-1,.4V7.3l1.1-.4h1.4a3.3,3.3,0,0,1,2.4.8,3.6,3.6,0,0,1,.7,2.5ZM27.4,4h2.3v9.5H27.4V4Zm6.8.8V7h1.6V8.6H34.2v2.3a1.3,1.3,0,0,0,.3,1c.1.2.4.3.8.3h.5v1.4l-.7.2h-.7a2.5,2.5,0,0,1-1.9-.6,3.4,3.4,0,0,1-.6-2.2V8.6H30.7V7h1.4V5.5l2.1-.7ZM37.1,4h2.2V7.9a2.4,2.4,0,0,1,.9-.8,2.8,2.8,0,0,1,1.3-.3,2.2,2.2,0,0,1,1.8.8,3.3,3.3,0,0,1,.6,2.1v3.8H41.7V10.2A2.1,2.1,0,0,0,41.4,9a1.2,1.2,0,0,0-1.7.1,1.8,1.8,0,0,0-.4,1.3v3.1H37.1V4Z" transform="translate(-2.8 -2.4)" fill="#231f20"/>
    <path d="M47.7,12.6v3.6H45.5V7h2V8.2a3.2,3.2,0,0,1,1-1,2.3,2.3,0,0,1,1.4-.4,2.5,2.5,0,0,1,2.1,1,3.6,3.6,0,0,1,.8,2.4,3.7,3.7,0,0,1-.8,2.5,2.6,2.6,0,0,1-2.1,1,2.1,2.1,0,0,1-1.2-.3,1.9,1.9,0,0,1-1-.8Zm1.4-4.1a1.4,1.4,0,0,0-1,.5,2.2,2.2,0,0,0-.4,1.3,2.1,2.1,0,0,0,.4,1.2,1.1,1.1,0,0,0,1,.5,1.2,1.2,0,0,0,1-.5,1.7,1.7,0,0,0,.4-1.3A1.6,1.6,0,0,0,50.1,9a1.2,1.2,0,0,0-1-.5Zm8.5-.1a1.4,1.4,0,0,0-1.1.5,2.6,2.6,0,0,0-.4,1.4,2.5,2.5,0,0,0,.4,1.3,1.4,1.4,0,0,0,1.1.5,1.4,1.4,0,0,0,1-.5,1.8,1.8,0,0,0,.4-1.3,2,2,0,0,0-.4-1.4,1.4,1.4,0,0,0-1-.5Zm0-1.6a3.8,3.8,0,0,1,2.7.9,3.3,3.3,0,0,1,1,2.6,3.2,3.2,0,0,1-1,2.5,3.8,3.8,0,0,1-2.7.9,4.1,4.1,0,0,1-2.8-.9,3.2,3.2,0,0,1-1-2.5,3.3,3.3,0,0,1,1-2.6,4.1,4.1,0,0,1,2.8-.9ZM62.7,4h2.2v9.5H62.7V4Zm3.9,3h2.3v6.5H66.6V7Zm0-3h2.3V5.8H66.6V4Zm6.8.8V7H75V8.6H73.4v2.3a1.3,1.3,0,0,0,.3,1c.1.2.4.3.8.3H75v1.4l-.7.2h-.7a2.5,2.5,0,0,1-1.9-.6,3.4,3.4,0,0,1-.6-2.2V8.6H69.9V7h1.4V5.5l2.1-.7Zm6.5,5.8a3,3,0,0,0-1.5.2.7.7,0,0,0-.4.7.8.8,0,0,0,.2.5.8.8,0,0,0,.7.2,1.3,1.3,0,0,0,1-.4,1.8,1.8,0,0,0,.4-1.1h-.4Zm2.5-.5v3.4h-2v-1a1.9,1.9,0,0,1-1,.8,2.8,2.8,0,0,1-1.3.3,2.1,2.1,0,0,1-1.6-.6,1.8,1.8,0,0,1-.6-1.5,1.9,1.9,0,0,1,.8-1.6,6.2,6.2,0,0,1,2.7-.5h.9a1,1,0,0,0-.5-.8,1.6,1.6,0,0,0-1.1-.3h-.9l-1.1.4V7.3a3.4,3.4,0,0,1,1.2-.4h1.4a3.2,3.2,0,0,1,2.3.8,3.6,3.6,0,0,1,.8,2.5Zm8.4-.4v3.8H88.6V10.2A2.1,2.1,0,0,0,88.3,9a1.1,1.1,0,0,0-.8-.3,1.3,1.3,0,0,0-1,.4,2.5,2.5,0,0,0-.3,1.3v3.1H84V7h2V8.2a1.9,1.9,0,0,1,1-1,2,2,0,0,1,1.3-.4,2.4,2.4,0,0,1,1.9.8,3.3,3.3,0,0,1,.6,2.1Zm6.4-2.5-.3,1.5L96,8.4l-.8-.2-.7.2a.5.5,0,0,0-.2.4q0,.3.9.6h.5a3,3,0,0,1,1.4.8,1.6,1.6,0,0,1,.4,1.2,1.7,1.7,0,0,1-.8,1.6,3.4,3.4,0,0,1-2.2.6H93.3a2,2,0,0,1-1.1-.3V11.7l1,.3,1,.2a1.5,1.5,0,0,0,.8-.2.5.5,0,0,0,.2-.4c0-.2-.3-.5-1-.7h-.4a4.5,4.5,0,0,1-1.4-.7A1.5,1.5,0,0,1,92.1,9a1.9,1.9,0,0,1,.8-1.6,3.7,3.7,0,0,1,2.3-.6h.9l1.1.3Z" transform="translate(-2.8 -2.4)" fill="#ed1c24"/>
    <path d="M92.2,5.9V2.8H91V2.4h2.8v.4H92.6V5.9Zm2,0V2.4h.7l.8,2.4c.1.3.2.4.2.6a1.4,1.4,0,0,1,.2-.6l.8-2.4h.6V5.9h-.4V3l-1,2.9h-.4l-1-3v3Z" transform="translate(-2.8 -2.4)" fill="#231f20"/>
    <path d="M2.8,17.6h.4v4.3H2.8V17.6Zm1.6,0h.5L7,21.2H7c.1.1.1.1.1.2V17.6h.4v4.3H7L4.8,18.2h0c-.1-.1-.1-.1-.1-.2v.3h0v3.6H4.4V17.6Zm4.6.3v3.6h.5a1.6,1.6,0,0,0,1.4-.5,1.9,1.9,0,0,0,0-2.6,1.8,1.8,0,0,0-1.4-.5Zm-.4-.3h.8a2.4,2.4,0,0,1,1.8.5,2.1,2.1,0,0,1,.6,1.6,2.1,2.1,0,0,1-.6,1.6,2.4,2.4,0,0,1-1.7.6H8.6V17.6Zm4.1,0h.4v4.3h-.4V17.6Zm3.1.3-1,2.5h1.9l-.9-2.5Zm-.3-.3H16l1.8,4.3h-.5l-.4-1.2H14.6l-.4,1.2h-.4l1.7-4.3Zm2.8-.1v1.7H18V17.5Zm2.9.2v.4l-.4-.2h-.4l-.6.2a.5.5,0,0,0-.3.5c0,.2.3.5.8.8h.2l.8.6a1.4,1.4,0,0,1,.2.6,1.3,1.3,0,0,1-.4.9,1.7,1.7,0,0,1-1,.3h-.5l-.5-.2v-.4l.5.2H20a.9.9,0,0,0,.7-.3c.2-.1.2-.3.2-.5s-.2-.6-.8-1h-.2l-.7-.5a.7.7,0,0,1-.2-.6,1.1,1.1,0,0,1,.3-.8,1.8,1.8,0,0,1,1.1-.3h.8Zm2.8-.1h.4v3.9h1.8v.4H24V17.6Zm4,2.7-.9.2a.5.5,0,0,0-.3.5c0,.2.1.3.2.5h.5a.7.7,0,0,0,.6-.3.8.8,0,0,0,.3-.7v-.3Zm.8-.4v2h-.4v-.5a.8.8,0,0,1-.4.4h-.6a.8.8,0,0,1-.7-.2.9.9,0,0,1-.3-.7,1,1,0,0,1,.4-.7A2.1,2.1,0,0,1,28,20h.4a.8.8,0,0,0-.2-.6c-.1-.2-.3-.2-.5-.2h-.5l-.4.2v-.4h.9a1,1,0,0,1,.8.3,1.2,1.2,0,0,1,.3.9Zm2.5-1.1v.4h-.2a.9.9,0,0,0-.7.3,1.9,1.9,0,0,0-.2.8v1.7h-.4V18.8h.4v.6l.3-.5.6-.2h.1a.1.1,0,0,0,.1.1ZM33,19a.8.8,0,0,0-.7.4,2.1,2.1,0,0,0,0,1.8.8.8,0,0,0,1.4,0,1.5,1.5,0,0,0,0-1.8A.8.8,0,0,0,33,19Zm1,.4v-.6h.3v2.8a1.9,1.9,0,0,1-.3,1.2,1.3,1.3,0,0,1-1.1.5h-1v-.4l.4.2h.5a1,1,0,0,0,.8-.3,1.5,1.5,0,0,0,.3-1v-.4a.8.8,0,0,1-.5.5c-.1.2-.3.2-.6.2a1.2,1.2,0,0,1-.9-.4,2.1,2.1,0,0,1-.3-1.2,2.1,2.1,0,0,1,.3-1.2,1.8,1.8,0,0,1,1-.4l.6.2.4.5Zm3.7.8v.2H35.5a1.9,1.9,0,0,0,.4.9c.1.2.4.3.8.3h.4l.4-.2v.4h-.9a1.2,1.2,0,0,1-1-.5,1.6,1.6,0,0,1-.4-1.2,1.6,1.6,0,0,1,.3-1.1,1.4,1.4,0,0,1,1-.5,1,1,0,0,1,.9.4,1.8,1.8,0,0,1,.3,1.1Zm-.3-.1c-.1-.3-.1-.6-.3-.8a.7.7,0,0,0-.6-.3.6.6,0,0,0-.6.3,1.1,1.1,0,0,0-.3.8ZM40,18.9v.3H38.8c-.1.1-.2.2-.2.3s.2.4.6.6h.1l.6.4a.6.6,0,0,1,.2.5.9.9,0,0,1-.3.7,1.1,1.1,0,0,1-.8.2h-.8v-.4l.4.2h.9l.2-.4c0-.2,0-.3-.1-.4l-.6-.3-.7-.4a.9.9,0,0,1-.1-.5.5.5,0,0,1,.3-.5.9.9,0,0,1,.7-.3H40Zm1.5-1v.9h.7v.3h-.7v1.8c0,.3,0,.4.1.5l.3.2h.4v.4h-.4c-.3,0-.5,0-.6-.2a1.2,1.2,0,0,1-.2-.7V19.1h-.6v-.3h.6V18Zm3.2-.3h.4v1.9h2.3V17.6h.4v4.3h-.4V19.8H45.1v2.1h-.4V17.6Zm6.5,2.6v.2H49a1.2,1.2,0,0,0,.3.9,1.1,1.1,0,0,0,.8.3h.5l.4-.2v.4h-.9a1.4,1.4,0,0,1-1.1-.5,2.1,2.1,0,0,1-.4-1.2,1.6,1.6,0,0,1,.4-1.1,1.4,1.4,0,0,1,1-.5,1,1,0,0,1,.9.4,1.8,1.8,0,0,1,.3,1.1Zm-.4-.1a1.9,1.9,0,0,0-.2-.8A.9.9,0,0,0,50,19a.9.9,0,0,0-.7.3l-.3.8Zm2.4.2-.9.2a.5.5,0,0,0-.3.5c0,.2.1.3.2.5h.4a1,1,0,0,0,1-1v-.3Zm.8-.4v2h-.4v-.5a.8.8,0,0,1-.4.4h-.6a.8.8,0,0,1-.7-.2.9.9,0,0,1-.3-.7,1,1,0,0,1,.4-.7,2.1,2.1,0,0,1,1.2-.3h.4a.8.8,0,0,0-.2-.6c-.1-.2-.3-.2-.5-.2h-.5l-.4.2v-.4h.9a1,1,0,0,1,.8.3,1.2,1.2,0,0,1,.3.9Zm1-2.7h.4v4.7H55V17.2Zm2.1.7v.9h.7v.3h-.7v1.8c0,.3,0,.4.1.5s.2.2.3.2h.3v.4h-.4a.7.7,0,0,1-.6-.2c-.1-.1-.1-.4-.1-.7V19.1H56v-.3h.7V18Zm1.4-.7h.4v2.1a1,1,0,0,1,.5-.4l.6-.2a.8.8,0,0,1,.7.3,1.7,1.7,0,0,1,.3,1v1.9h-.4V20.1a1.5,1.5,0,0,0-.2-.8.8.8,0,0,0-.6-.2.7.7,0,0,0-.6.3,1.2,1.2,0,0,0-.3.9v1.6h-.4V17.2Zm5.6,1.7v.4l-.3-.2h-.4a.9.9,0,0,0-.8.4,1.1,1.1,0,0,0-.3.8,1.2,1.2,0,0,0,.3.9.9.9,0,0,0,.8.4H64v.4h-.8a1.4,1.4,0,0,1-1.1-.4,1.6,1.6,0,0,1-.4-1.2,1.4,1.4,0,0,1,1.5-1.5h.8Zm2,1.4-.9.2a.5.5,0,0,0-.3.5c0,.2.1.3.2.5h.4a1,1,0,0,0,1-1v-.3Zm.8-.4v2h-.4v-.5a.8.8,0,0,1-.4.4h-.6a.8.8,0,0,1-.7-.2.9.9,0,0,1-.3-.7.8.8,0,0,1,.4-.7,2.1,2.1,0,0,1,1.2-.3h.4a.8.8,0,0,0-.2-.6c-.1-.2-.3-.2-.5-.2h-.5l-.4.2v-.4h.9a1,1,0,0,1,.8.3,1.2,1.2,0,0,1,.3.9Zm2.5-1.1v.4h-.3l-.6.3a1.9,1.9,0,0,0-.2.8v1.7h-.4V18.8h.4v.6l.3-.5.6-.2h.1a.1.1,0,0,0,.1.1Zm2.9,1.4v.2H70.1a1.2,1.2,0,0,0,.3.9,1.1,1.1,0,0,0,.8.3h.5l.4-.2v.4h-.9a1.6,1.6,0,0,1-1.1-.5,2.1,2.1,0,0,1-.4-1.2,1.6,1.6,0,0,1,.4-1.1,1.4,1.4,0,0,1,1-.5,1,1,0,0,1,.9.4,1.8,1.8,0,0,1,.3,1.1Zm-.4-.1a1.9,1.9,0,0,0-.2-.8.9.9,0,0,0-.6-.3.9.9,0,0,0-.7.3l-.3.8Zm3.3-2.2v1.8h.4a1,1,0,0,0,.8-.3.6.6,0,0,0,.3-.6,1.4,1.4,0,0,0-.2-.7l-.8-.2Zm-.4-.3h.9a1.8,1.8,0,0,1,1.1.3,1.2,1.2,0,0,1,0,1.8,2.1,2.1,0,0,1-1.2.3h-.4v1.9h-.4V17.6Zm3-.4h.4v4.7h-.4V17.2Zm2.7,3.1-.8.2a.6.6,0,0,0-.1,1H80a.9.9,0,0,0,.7-.3.8.8,0,0,0,.3-.7v-.3Zm.9-.4v2H81v-.5c-.1.2-.3.3-.4.4H80a1.1,1.1,0,0,1-.8-.2A1.4,1.4,0,0,1,79,21a.8.8,0,0,1,.4-.7,2.1,2.1,0,0,1,1.2-.3H81a.8.8,0,0,0-.2-.6c-.2-.2-.3-.2-.6-.2h-.4l-.5.2v-.4h1a1.1,1.1,0,0,1,.8.3,1.2,1.2,0,0,1,.3.9Zm1.6-2v.9h.7v.3H83v1.8a2,2,0,0,0,.1.5.5.5,0,0,0,.4.2h.3v.4h-.4c-.3,0-.5,0-.6-.2a1.2,1.2,0,0,1-.2-.7V19.1H82v-.3h.6V18Zm2.9-.7v.4h-.3l-.4.2a4.3,4.3,0,0,0-.1.5v.6h.7v.3h-.7v2.8h-.4V19.1h-.6v-.3h.6v-.6a1.1,1.1,0,0,1,.3-.8l.6-.2h.3ZM87.7,19a.8.8,0,0,0-.7.4,1.2,1.2,0,0,0-.3.9,1.7,1.7,0,0,0,.3,1,1,1,0,0,0,1.4,0,1.7,1.7,0,0,0,.3-1,1.2,1.2,0,0,0-.3-.9.8.8,0,0,0-.7-.4Zm0-.3a1.2,1.2,0,0,1,1,.5,1.2,1.2,0,0,1,.4,1.1,1.6,1.6,0,0,1-.4,1.2,1.2,1.2,0,0,1-1,.5,1.6,1.6,0,0,1-1.1-.5,2.1,2.1,0,0,1-.3-1.2,1.4,1.4,0,0,1,1.4-1.6Zm3.7.1v.4h-.2a.9.9,0,0,0-.6.3,1.9,1.9,0,0,0-.2.8v1.7H90V18.8h.4v.6a.5.5,0,0,1,.3-.5l.5-.2h.1a.1.1,0,0,1,.1.1Zm2.9.6a1.2,1.2,0,0,1,.5-.5l.5-.2a1,1,0,0,1,.8.3,3,3,0,0,1,.2,1v1.9h-.4V20.1a1.7,1.7,0,0,0-.1-.8l-.5-.2a.9.9,0,0,0-.7.3,2,2,0,0,0-.2.9v1.6H94V20.1a1.5,1.5,0,0,0-.2-.8.6.6,0,0,0-.5-.2.9.9,0,0,0-.6.3c-.2.2-.2.5-.2.9v1.6h-.4V18.8h.3v.6l.4-.5.6-.2.6.2a.9.9,0,0,1,.3.5Z" transform="translate(-2.8 -2.4)" fill="#231f20"/>
  </g>
</svg>
