<?xml version="1.0" encoding="utf-8"?>
<!-- Generator: Adobe Illustrator 22.1.0, SVG Export Plug-In . SVG Version: 6.00 Build 0)  -->
<svg version="1.1" id="Layer_1" xmlns="http://www.w3.org/2000/svg" xmlns:xlink="http://www.w3.org/1999/xlink" x="0px" y="0px"
	 viewBox="0 0 30 30" style="enable-background:new 0 0 30 30;" xml:space="preserve">
<style type="text/css">
	.st0{opacity:0.6;}
	.st1{fill:#FFFFFF;}
</style>
<title>specialization_white</title>
<g class="st0">
	<path class="st1" d="M19.9,13.7H18v-1.9c0-0.7-0.6-1.3-1.3-1.4h-3.5C12.5,10.4,12,11,12,11.8v1.9h-1.9c-0.4,0-0.7,0.2-1,0.4
		c-0.3,0.3-0.4,0.6-0.4,1v3.4c0,0.8,0.6,1.4,1.4,1.4H12v1.9c0,0.3,0.1,0.7,0.4,0.9c0.2,0.3,0.5,0.5,0.9,0.5h3.5
		c0.7-0.1,1.3-0.7,1.3-1.4v-1.9h1.9c0.4,0,0.7-0.2,1-0.4c0.3-0.3,0.4-0.6,0.4-1V15C21.3,14.3,20.7,13.7,19.9,13.7z M13,17.6h-2.2
		v-1.8H13c0.6,0,1.1-0.5,1.1-1.1v0v-2.2h1.9v2.2c0,0.6,0.5,1.1,1.1,1.1h2.2v1.8H17c-0.6,0-1.1,0.5-1.1,1.1l0,0v2.2h-1.9v-2.2
		C14.1,18.1,13.6,17.6,13,17.6C13,17.6,13,17.6,13,17.6z"/>
	<path class="st1" d="M25.2,6.1h-4.4V4.5c0-0.6-0.2-1.2-0.6-1.6c-0.4-0.4-0.9-0.7-1.5-0.7h-7.3c-1.2,0-2.2,0.9-2.3,2.1V6H4.8
		C2.4,5.8,0.4,7.7,0.3,10c0,0.2,0,0.3,0,0.5v12.7c-0.2,2.4,1.6,4.4,4,4.6c0.2,0,0.3,0,0.5,0h20.5c2.4,0.1,4.4-1.7,4.5-4.1
		c0-0.2,0-0.3,0-0.5V10.6c0.1-2.4-1.7-4.4-4.1-4.5C25.5,6.1,25.4,6.1,25.2,6.1z M11.3,6V4.3h7.5V6H11.3z M27.6,10.6v12.7
		c0.2,1.1-0.6,2.2-1.7,2.4c-0.2,0-0.4,0-0.7,0H4.8c-1.1,0.2-2.2-0.6-2.4-1.7c0-0.2,0-0.4,0-0.7V10.6C2.2,9.4,3,8.3,4.1,8.2
		c0.2,0,0.4,0,0.7,0h20.5c1.1-0.2,2.2,0.6,2.4,1.7C27.7,10.1,27.7,10.3,27.6,10.6z"/>
</g>
</svg>
