<?xml version="1.0" encoding="utf-8"?>
<!-- Generator: Adobe Illustrator 22.1.0, SVG Export Plug-In . SVG Version: 6.00 Build 0)  -->
<svg version="1.1" id="Layer_1" xmlns="http://www.w3.org/2000/svg" xmlns:xlink="http://www.w3.org/1999/xlink" x="0px" y="0px"
	 viewBox="0 0 30 30" style="enable-background:new 0 0 30 30;" xml:space="preserve">
<style type="text/css">
	.st0{opacity:0.6;}
	.st1{fill:#2287DE;}
</style>
<title>staff_blue</title>
<g class="st0">
	<path class="st1" d="M12.4,7.3c1.6,0,3.3,0.2,4.8,0.8h0.6c0.5,0,0.9-0.3,1.2-0.7c0.3-0.7,0-1.4-0.6-1.8c-2.1-1-5.8-1-6-1
		c-0.7,0-1.3,0.6-1.3,1.3S11.6,7.3,12.4,7.3L12.4,7.3L12.4,7.3z"/>
	<path class="st1" d="M22.5,17.6l-3.4-1v-0.8l0.7-0.5c1.3-1.3,2-3,2-4.8V9.1l0.3-0.6c0.4-0.8,0.6-1.7,0.6-2.6V1.5
		c0-0.7-0.6-1.3-1.3-1.3c0,0,0,0,0,0h-8.1c-3.2,0-5.8,2.6-5.8,5.8l0,0c0,0.8,0.2,1.5,0.5,2.2l0.4,0.8v1.2c0,2.2,1,4.2,2.7,5.6v0.8
		l0,0l-3.5,1c-1.7,0.5-2.9,2.1-2.9,3.9v6.9c0,0.7,0.6,1.3,1.3,1.3c0.7,0.1,1.3-0.5,1.4-1.2c0,0,0-0.1,0-0.1v-6.9
		c0-0.6,0.4-1.2,1-1.4l2.7-0.8h0.4l0.5-0.2l1.8,1.8v7.5c0,0.7,0.6,1.3,1.3,1.3s1.3-0.6,1.3-1.3V21l1.8-1.8h0.1l3.4,0.9
		c0.6,0.2,1,0.8,1,1.4v6.9c0,0.7,0.6,1.3,1.3,1.3c0,0,0.1,0,0.1,0c0.7,0,1.3-0.6,1.3-1.3v-6.8C25.3,19.8,24.2,18.2,22.5,17.6z
		 M13.6,17l1.2,0.2H15l1.4-0.2l0,0l-1.4,1.4C15.1,18.4,13.7,17,13.6,17z M10.9,8.1l-0.5-1c-0.2-0.3-0.2-0.7-0.2-1.1l0,0
		c0-1.7,1.4-3.1,3.1-3.2H20v3c0,0.5-0.1,1-0.3,1.4l-0.4,0.9c-0.1,0.2-0.1,0.4-0.1,0.6v1.8c0,1.1-0.5,2.1-1.3,2.9
		c-0.7,0.7-1.8,1.1-2.8,1.1h-0.1c-2.3-0.1-4-2-3.9-4.3c0,0,0,0,0,0V8.8C11,8.5,11,8.3,10.9,8.1z"/>
</g>
</svg>
