<svg id="Layer_1" data-name="Layer 1" xmlns="http://www.w3.org/2000/svg" width="29.5" height="29.5" viewBox="0 0 29.5 29.5">
  <title>weight</title>
  <g opacity="0.5">
    <path d="M25.1.3H4.9A4.5,4.5,0,0,0,.3,4.9V25.1a4.5,4.5,0,0,0,4.6,4.6H25.1a4.7,4.7,0,0,0,4.7-4.6V4.9A4.7,4.7,0,0,0,25.1.3Zm2.8,24.8a2.7,2.7,0,0,1-2.8,2.8H15.9V22.4H14.1v5.5H4.9a2.7,2.7,0,0,1-2.8-2.8V4.9A2.7,2.7,0,0,1,4.9,2.1H25.1a2.7,2.7,0,0,1,2.8,2.8ZM15,5.8h.1V3.9H15l-1.9.2.3,1.8Zm-3.2.5-.6-1.8-1.8.8.8,1.6A7.6,7.6,0,0,1,11.8,6.3Zm5.3-2.2-.3,1.8a10.4,10.4,0,0,1,5.4,2.8L20,13.2H16.7l2.8-4.1L17.9,8l-3.4,5.2H10L7.8,8.7l1-.9L7.7,6.4A6.5,6.5,0,0,0,6,8l-.4.5L8.9,15H21.1l3.3-6.6L24,8A11,11,0,0,0,17.1,4.1Z" transform="translate(-0.3 -0.3)" fill="#fff"/>
  </g>
</svg>
